SP_p.vcd
$date
	Mon Jan 15 20:49:13 2024
$end
$version
	Icarus Verilog
$end
$timescale
	10ps
$end
$scope module TESTBED $end
$var wire 1 ! rst_n $end
$var wire 1 " out_valid $end
$var wire 1 # mem_wen $end
$var wire 32 $ mem_dout [31:0] $end
$var wire 32 % mem_din [31:0] $end
$var wire 12 & mem_addr [11:0] $end
$var wire 32 ' inst_addr [31:0] $end
$var wire 32 ( inst [31:0] $end
$var wire 1 ) in_valid $end
$var wire 1 * clk $end
$var integer 32 + i [31:0] $end
$scope module My_MEM $end
$var wire 1 , CEN $end
$var wire 1 - OEN $end
$var wire 1 . _CEN $end
$var wire 1 / _CLK $end
$var wire 1 0 _OEN $end
$var wire 1 1 _OENi $end
$var wire 32 2 _Q [31:0] $end
$var wire 1 3 _WEN $end
$var wire 1 4 re_flag $end
$var wire 1 5 re_data_flag $end
$var wire 32 6 _D [31:0] $end
$var wire 12 7 _A [11:0] $end
$var wire 1 # WEN $end
$var wire 32 8 Q [31:0] $end
$var wire 32 9 D [31:0] $end
$var wire 1 * CLK $end
$var wire 12 : A [11:0] $end
$var parameter 32 ; BITS $end
$var parameter 32 < addr_width $end
$var parameter 12 = addrx $end
$var parameter 32 > word_depth $end
$var parameter 32 ? wordx $end
$var reg 12 @ Ai [11:0] $end
$var reg 1 A CENi $end
$var reg 32 B Di [31:0] $end
$var reg 1 C LAST_CLK $end
$var reg 12 D LAST_NOT_A [11:0] $end
$var reg 1 E LAST_NOT_CEN $end
$var reg 1 F LAST_NOT_CLK_MINH $end
$var reg 1 G LAST_NOT_CLK_MINL $end
$var reg 1 H LAST_NOT_CLK_PER $end
$var reg 32 I LAST_NOT_D [31:0] $end
$var reg 1 J LAST_NOT_WEN $end
$var reg 32 K LAST_Qi [31:0] $end
$var reg 12 L LATCHED_A [11:0] $end
$var reg 1 M LATCHED_CEN $end
$var reg 32 N LATCHED_D [31:0] $end
$var reg 1 O LATCHED_WEN $end
$var reg 12 P NOT_A [11:0] $end
$var reg 1 Q NOT_A0 $end
$var reg 1 R NOT_A1 $end
$var reg 1 S NOT_A10 $end
$var reg 1 T NOT_A11 $end
$var reg 1 U NOT_A2 $end
$var reg 1 V NOT_A3 $end
$var reg 1 W NOT_A4 $end
$var reg 1 X NOT_A5 $end
$var reg 1 Y NOT_A6 $end
$var reg 1 Z NOT_A7 $end
$var reg 1 [ NOT_A8 $end
$var reg 1 \ NOT_A9 $end
$var reg 1 ] NOT_CEN $end
$var reg 1 ^ NOT_CLK_MINH $end
$var reg 1 _ NOT_CLK_MINL $end
$var reg 1 ` NOT_CLK_PER $end
$var reg 32 a NOT_D [31:0] $end
$var reg 1 b NOT_D0 $end
$var reg 1 c NOT_D1 $end
$var reg 1 d NOT_D10 $end
$var reg 1 e NOT_D11 $end
$var reg 1 f NOT_D12 $end
$var reg 1 g NOT_D13 $end
$var reg 1 h NOT_D14 $end
$var reg 1 i NOT_D15 $end
$var reg 1 j NOT_D16 $end
$var reg 1 k NOT_D17 $end
$var reg 1 l NOT_D18 $end
$var reg 1 m NOT_D19 $end
$var reg 1 n NOT_D2 $end
$var reg 1 o NOT_D20 $end
$var reg 1 p NOT_D21 $end
$var reg 1 q NOT_D22 $end
$var reg 1 r NOT_D23 $end
$var reg 1 s NOT_D24 $end
$var reg 1 t NOT_D25 $end
$var reg 1 u NOT_D26 $end
$var reg 1 v NOT_D27 $end
$var reg 1 w NOT_D28 $end
$var reg 1 x NOT_D29 $end
$var reg 1 y NOT_D3 $end
$var reg 1 z NOT_D30 $end
$var reg 1 { NOT_D31 $end
$var reg 1 | NOT_D4 $end
$var reg 1 } NOT_D5 $end
$var reg 1 ~ NOT_D6 $end
$var reg 1 !" NOT_D7 $end
$var reg 1 "" NOT_D8 $end
$var reg 1 #" NOT_D9 $end
$var reg 1 $" NOT_WEN $end
$var reg 32 %" Qi [31:0] $end
$var reg 1 &" WENi $end
$scope function valid_address $end
$var reg 12 '" a [11:0] $end
$upscope $end
$scope task latch_inputs $end
$upscope $end
$scope task mem_cycle $end
$upscope $end
$scope task process_violations $end
$upscope $end
$scope task read_mem $end
$var reg 1 (" r_wb $end
$var reg 1 )" xflag $end
$upscope $end
$scope task update_last_notifiers $end
$upscope $end
$scope task update_logic $end
$upscope $end
$scope task update_notifier_buses $end
$upscope $end
$scope task write_mem $end
$var reg 12 *" a [11:0] $end
$var reg 32 +" d [31:0] $end
$upscope $end
$scope task write_mem_x $end
$var reg 12 ," a [11:0] $end
$upscope $end
$scope task x_inputs $end
$var integer 32 -" n [31:0] $end
$upscope $end
$scope task x_mem $end
$var integer 32 ." n [31:0] $end
$upscope $end
$upscope $end
$scope module My_PATTERN $end
$var wire 1 " out_valid $end
$var wire 32 /" inst_addr [31:0] $end
$var reg 1 * clk $end
$var reg 1 ) in_valid $end
$var reg 32 0" inst [31:0] $end
$var reg 1 ! rst_n $end
$var real 1 1" CYCLE $end
$var integer 32 2" address [31:0] $end
$var integer 32 3" execution_num [31:0] $end
$var integer 32 4" func [31:0] $end
$var integer 32 5" golden_inst_addr_in [31:0] $end
$var integer 32 6" golden_inst_addr_out [31:0] $end
$var integer 32 7" i [31:0] $end
$var integer 32 8" immediate [31:0] $end
$var integer 32 9" in_valid_counter [31:0] $end
$var integer 32 :" latency [31:0] $end
$var integer 32 ;" opcode [31:0] $end
$var integer 32 <" out_max_latency [31:0] $end
$var integer 32 =" out_valid_counter [31:0] $end
$var integer 32 >" pat [31:0] $end
$var integer 32 ?" rd [31:0] $end
$var integer 32 @" rs [31:0] $end
$var integer 32 A" rt [31:0] $end
$var integer 32 B" seed [31:0] $end
$var integer 32 C" shamt [31:0] $end
$var integer 32 D" t [31:0] $end
$scope task check_ans_task $end
$upscope $end
$scope task check_memory_and_out_valid $end
$upscope $end
$scope task display_fail_task $end
$upscope $end
$scope task display_pass_task $end
$upscope $end
$scope task input_task $end
$var integer 32 E" temp [31:0] $end
$upscope $end
$scope task reset_check_task $end
$upscope $end
$upscope $end
$scope module My_SP $end
$var wire 1 * clk $end
$var wire 1 ) in_valid $end
$var wire 32 F" inst [31:0] $end
$var wire 32 G" mem_dout [31:0] $end
$var wire 1 ! rst_n $end
$var reg 1 H" ALUSrc $end
$var reg 1 I" RegWrite_EX $end
$var reg 1 J" RegWrite_mem $end
$var reg 6 K" acon [5:0] $end
$var reg 32 L" aout [31:0] $end
$var reg 32 M" aout_EX [31:0] $end
$var reg 32 N" aout_mem [31:0] $end
$var reg 6 O" func [5:0] $end
$var reg 32 P" inst_addr [31:0] $end
$var reg 32 Q" inst_addr_4 [31:0] $end
$var reg 32 R" inst_addr_pc [31:0] $end
$var reg 32 S" inst_f [31:0] $end
$var reg 32 T" inst_ss [31:0] $end
$var reg 32 U" j_addr [31:0] $end
$var reg 1 V" jal $end
$var reg 1 W" jal_EX $end
$var reg 32 X" jal_addr_EX [31:0] $end
$var reg 32 Y" jal_addr_mem [31:0] $end
$var reg 1 Z" jal_mem $end
$var reg 1 [" memR $end
$var reg 1 \" memR_EX $end
$var reg 1 ]" memW $end
$var reg 1 ^" memW_EX $end
$var reg 12 _" mem_addr [11:0] $end
$var reg 32 `" mem_din [31:0] $end
$var reg 1 # mem_wen $end
$var reg 1 a" memtoReg $end
$var reg 1 b" memtoReg_EX $end
$var reg 1 c" memtoReg_ts $end
$var reg 6 d" op_comb [5:0] $end
$var reg 6 e" op_ff [5:0] $end
$var reg 6 f" opc [5:0] $end
$var reg 1 " out_valid $end
$var reg 2 g" pcSrc [1:0] $end
$var reg 5 h" rd_addr [4:0] $end
$var reg 1 i" regDst $end
$var reg 1 j" regW $end
$var reg 5 k" reg_dst [4:0] $end
$var reg 5 l" reg_dst_EX [4:0] $end
$var reg 5 m" reg_dst_mem [4:0] $end
$var reg 32 n" rs [31:0] $end
$var reg 32 o" rs_d1 [31:0] $end
$var reg 32 p" rt [31:0] $end
$var reg 32 q" rt_0 [31:0] $end
$var reg 32 r" rt_1 [31:0] $end
$var reg 32 s" rt_2 [31:0] $end
$var reg 32 t" rt_3 [31:0] $end
$var reg 5 u" rt_addr [4:0] $end
$var reg 32 v" rt_d1 [31:0] $end
$var reg 32 w" rta [31:0] $end
$var reg 32 x" rtb [31:0] $end
$var reg 5 y" shamt [4:0] $end
$var reg 1 z" valid1 $end
$var reg 1 {" valid2 $end
$var reg 1 |" valid3 $end
$var reg 32 }" writeData [31:0] $end
$scope begin $ivl_for_loop0 $end
$var integer 32 ~" i [31:0] $end
$upscope $end
$scope begin $ivl_for_loop1 $end
$var integer 32 !# i [31:0] $end
$upscope $end
$scope begin $ivl_for_loop2 $end
$var integer 32 "# i [31:0] $end
$upscope $end
$upscope $end
$upscope $end
$scope module TESTBED $end
$scope module My_SP $end
$var reg 32 ## \r[0] [31:0] $end
$upscope $end
$upscope $end
$scope module TESTBED $end
$scope module My_SP $end
$var reg 32 $# \r[1] [31:0] $end
$upscope $end
$upscope $end
$scope module TESTBED $end
$scope module My_SP $end
$var reg 32 %# \r[2] [31:0] $end
$upscope $end
$upscope $end
$scope module TESTBED $end
$scope module My_SP $end
$var reg 32 &# \r[3] [31:0] $end
$upscope $end
$upscope $end
$scope module TESTBED $end
$scope module My_SP $end
$var reg 32 '# \r[4] [31:0] $end
$upscope $end
$upscope $end
$scope module TESTBED $end
$scope module My_SP $end
$var reg 32 (# \r[5] [31:0] $end
$upscope $end
$upscope $end
$scope module TESTBED $end
$scope module My_SP $end
$var reg 32 )# \r[6] [31:0] $end
$upscope $end
$upscope $end
$scope module TESTBED $end
$scope module My_SP $end
$var reg 32 *# \r[7] [31:0] $end
$upscope $end
$upscope $end
$scope module TESTBED $end
$scope module My_SP $end
$var reg 32 +# \r[8] [31:0] $end
$upscope $end
$upscope $end
$scope module TESTBED $end
$scope module My_SP $end
$var reg 32 ,# \r[9] [31:0] $end
$upscope $end
$upscope $end
$scope module TESTBED $end
$scope module My_SP $end
$var reg 32 -# \r[10] [31:0] $end
$upscope $end
$upscope $end
$scope module TESTBED $end
$scope module My_SP $end
$var reg 32 .# \r[11] [31:0] $end
$upscope $end
$upscope $end
$scope module TESTBED $end
$scope module My_SP $end
$var reg 32 /# \r[12] [31:0] $end
$upscope $end
$upscope $end
$scope module TESTBED $end
$scope module My_SP $end
$var reg 32 0# \r[13] [31:0] $end
$upscope $end
$upscope $end
$scope module TESTBED $end
$scope module My_SP $end
$var reg 32 1# \r[14] [31:0] $end
$upscope $end
$upscope $end
$scope module TESTBED $end
$scope module My_SP $end
$var reg 32 2# \r[15] [31:0] $end
$upscope $end
$upscope $end
$scope module TESTBED $end
$scope module My_SP $end
$var reg 32 3# \r[16] [31:0] $end
$upscope $end
$upscope $end
$scope module TESTBED $end
$scope module My_SP $end
$var reg 32 4# \r[17] [31:0] $end
$upscope $end
$upscope $end
$scope module TESTBED $end
$scope module My_SP $end
$var reg 32 5# \r[18] [31:0] $end
$upscope $end
$upscope $end
$scope module TESTBED $end
$scope module My_SP $end
$var reg 32 6# \r[19] [31:0] $end
$upscope $end
$upscope $end
$scope module TESTBED $end
$scope module My_SP $end
$var reg 32 7# \r[20] [31:0] $end
$upscope $end
$upscope $end
$scope module TESTBED $end
$scope module My_SP $end
$var reg 32 8# \r[21] [31:0] $end
$upscope $end
$upscope $end
$scope module TESTBED $end
$scope module My_SP $end
$var reg 32 9# \r[22] [31:0] $end
$upscope $end
$upscope $end
$scope module TESTBED $end
$scope module My_SP $end
$var reg 32 :# \r[23] [31:0] $end
$upscope $end
$upscope $end
$scope module TESTBED $end
$scope module My_SP $end
$var reg 32 ;# \r[24] [31:0] $end
$upscope $end
$upscope $end
$scope module TESTBED $end
$scope module My_SP $end
$var reg 32 <# \r[25] [31:0] $end
$upscope $end
$upscope $end
$scope module TESTBED $end
$scope module My_SP $end
$var reg 32 =# \r[26] [31:0] $end
$upscope $end
$upscope $end
$scope module TESTBED $end
$scope module My_SP $end
$var reg 32 ># \r[27] [31:0] $end
$upscope $end
$upscope $end
$scope module TESTBED $end
$scope module My_SP $end
$var reg 32 ?# \r[28] [31:0] $end
$upscope $end
$upscope $end
$scope module TESTBED $end
$scope module My_SP $end
$var reg 32 @# \r[29] [31:0] $end
$upscope $end
$upscope $end
$scope module TESTBED $end
$scope module My_SP $end
$var reg 32 A# \r[30] [31:0] $end
$upscope $end
$upscope $end
$scope module TESTBED $end
$scope module My_SP $end
$var reg 32 B# \r[31] [31:0] $end
$upscope $end
$upscope $end
$enddefinitions $end
$comment Show the parameter values. $end
$dumpall
bx ?
b1000000000000 >
bx =
b1100 <
b100000 ;
$end
#0
$dumpvars
bx B#
bx A#
bx @#
bx ?#
bx >#
bx =#
bx <#
bx ;#
bx :#
bx 9#
bx 8#
bx 7#
bx 6#
bx 5#
bx 4#
bx 3#
bx 2#
bx 1#
bx 0#
bx /#
bx .#
bx -#
bx ,#
bx +#
bx *#
bx )#
bx (#
bx '#
bx &#
bx %#
bx $#
bx ##
b100000 "#
bx !#
bx ~"
bx }"
x|"
x{"
xz"
bx y"
bx x"
bx w"
bx v"
bx u"
bx t"
b0xxxxxxxxxxxxxxxx s"
bx r"
bx q"
bx p"
bx o"
bx n"
bx m"
bx l"
bx k"
0j"
xi"
bx h"
bx g"
bx f"
bx e"
bx d"
xc"
xb"
xa"
bx `"
bx _"
x^"
0]"
x\"
x["
xZ"
bx Y"
bx X"
xW"
xV"
bx00 U"
bx T"
bx S"
bx R"
bx Q"
bx P"
bx O"
bx N"
bx M"
bx L"
b10 K"
xJ"
xI"
0H"
bx G"
bx F"
bx E"
bx D"
bx C"
b1000000 B"
bx A"
bx @"
bx ?"
bx >"
b0 ="
b1010 <"
bx ;"
b11111111111111111111111111111111 :"
b0 9"
bx 8"
b100000 7"
b0 6"
b0 5"
bx 4"
b111110100 3"
bx 2"
r10 1"
bx 0"
bx /"
bx ."
bx -"
bx ,"
bx +"
bx *"
x)"
x("
bx '"
x&"
bx %"
x$"
x#"
x""
x!"
x~
x}
x|
x{
xz
xy
xx
xw
xv
xu
xt
xs
xr
xq
xp
xo
xn
xm
xl
xk
xj
xi
xh
xg
xf
xe
xd
xc
xb
bx a
x`
x_
x^
x]
x\
x[
xZ
xY
xX
xW
xV
xU
xT
xS
xR
xQ
bx P
xO
bx N
xM
bx L
bx K
xJ
bx I
xH
xG
xF
xE
bx D
0C
bx B
xA
bx @
bx :
bx 9
bx 8
bx 7
bx 6
x5
14
x3
bx 2
01
00
0/
0.
0-
0,
b100000 +
0*
0)
bx (
bx '
bx &
bx %
bx $
x#
x"
1!
$end
#500
0*
#1000
05
b0 6
b0 7
13
1#
b0 L"
b0 x"
b0 w"
b0 t"
b0 s"
b0 y"
b0 p"
b0 r"
b0 q"
b0 n"
b0 K"
b0 k"
0["
1a"
0V"
1i"
1j"
b0 U"
b0 S"
b0 O"
b0 f"
b0 h"
b0 u"
b0 v"
b0 o"
b100000 "#
b0 R"
b0 Y"
b0 m"
b0 N"
0Z"
0J"
0c"
0b"
0I"
0W"
b0 l"
b0 M"
b0 X"
b0 %
b0 9
b0 `"
b0 &
b0 :
b0 _"
0^"
0\"
b0 d"
b0 T"
b0 '
b0 /"
b0 P"
b0 Q"
b0 B#
b0 A#
b0 @#
b0 ?#
b0 >#
b0 =#
b0 <#
b0 ;#
b0 :#
b0 9#
b0 8#
b0 7#
b0 6#
b0 5#
b0 4#
b0 3#
b0 2#
b0 1#
b0 0#
b0 /#
b0 .#
b0 -#
b0 ,#
b0 +#
b0 *#
b0 )#
b0 (#
b0 '#
b0 &#
b0 %#
b0 $#
b0 ##
0"
0|"
0{"
0z"
b100000 ~"
0!
#2000
b100000 7"
1!
#3000
bx L"
bx x"
bx w"
bx t"
b0xxxxxxxxxxxxxxxx s"
bx y"
bx p"
bx r"
bx q"
bx n"
b10 K"
bx k"
x["
xa"
xV"
xi"
0j"
bx00 U"
bx S"
bx O"
bx f"
bx h"
bx u"
bx v"
bx o"
1b"
1I"
bx d"
bx T"
b100 Q"
b0 B#
b0 A#
b0 @#
b0 ?#
b0 >#
b0 =#
b0 <#
b0 ;#
b0 :#
b0 9#
b0 8#
b0 7#
b0 6#
b0 5#
b0 4#
b0 3#
b0 2#
b0 1#
b0 0#
b0 /#
b0 .#
b0 -#
b0 ,#
b0 +#
b0 *#
b0 )#
b0 (#
b0 '#
b0 &#
b0 %#
b0 $#
b0 ##
b100000 "#
b11111111111111111111111111111101 }"
b11111111111111111111111111111101 $
b11111111111111111111111111111101 8
b11111111111111111111111111111101 G"
1C
b11111111111111111111111111111101 2
b11111111111111111111111111111101 %"
b0 '"
0)"
1("
b0 B
b0 @
1&"
0A
0M
1O
b0 N
b0 L
1/
b100000 !#
b11 D"
b10000110111001101000001 B"
1*
#3500
0C
0/
0*
#4000
bx 6
bx 7
b100000 "#
b0 }"
1J"
1c"
xb"
0I"
xW"
bx l"
bx M"
b100 X"
bx %
bx 9
bx `"
bx &
bx :
bx _"
x\"
b0 B#
b0 A#
b0 @#
b0 ?#
b0 >#
b0 =#
b0 <#
b0 ;#
b0 :#
b0 9#
b0 8#
b0 7#
b0 6#
b0 5#
b0 4#
b0 3#
b0 2#
b0 1#
b0 0#
b0 /#
b0 .#
b0 -#
b0 ,#
b0 +#
b0 *#
b0 )#
b0 (#
b0 '#
b0 &#
b0 %#
b0 $#
b0 ##
1C
b11111111111111111111111111111101 K
1/
b100000 !#
1*
#4500
0C
0/
0*
#5000
b100000 "#
bx }"
b100 Y"
bx m"
bx N"
xZ"
0J"
xc"
b0 B#
b0 A#
b0 @#
b0 ?#
b0 >#
b0 =#
b0 <#
b0 ;#
b0 :#
b0 9#
b0 8#
b0 7#
b0 6#
b0 5#
b0 4#
b0 3#
b0 2#
b0 1#
b0 0#
b0 /#
b0 .#
b0 -#
b0 ,#
b0 +#
b0 *#
b0 )#
b0 (#
b0 '#
b0 &#
b0 %#
b0 $#
b0 ##
bx $
bx 8
bx G"
1C
bx 2
bx %"
bx '"
bx B
bx @
bx N
bx L
1/
b100000 !#
1*
#5500
0C
b100000 "#
b100 R"
b0 g"
0/
b0 :"
b1 9"
b100 5"
b111100111100 2"
b111100 4"
b111100111100 8"
b0 A"
b0 @"
b101 ;"
1)
b10100000000000000111100111100 (
b10100000000000000111100111100 0"
b10100000000000000111100111100 F"
b0 E"
0*
#6000
b111100111100 L"
b111100111100 x"
b111100111100 w"
b111100111100 t"
b111100111100 s"
b11100 y"
b111100111100 p"
b111100111100 r"
b0 q"
b0 n"
b0 k"
1["
0a"
0V"
0i"
1j"
1H"
b10000000000000011110011110000 U"
b111100111100 S"
b111100 O"
b101 f"
b1 h"
b0 u"
b0 v"
b0 o"
b100000 "#
b1000 R"
b10100000000000000111100111100 T"
b100 '
b100 /"
b100 P"
b0 B#
b0 A#
b0 @#
b0 ?#
b0 >#
b0 =#
b0 <#
b0 ;#
b0 :#
b0 9#
b0 8#
b0 7#
b0 6#
b0 5#
b0 4#
b0 3#
b0 2#
b0 1#
b0 0#
b0 /#
b0 .#
b0 -#
b0 ,#
b0 +#
b0 *#
b0 )#
b0 (#
b0 '#
b0 &#
b0 %#
b0 $#
b0 ##
1|"
1C
bx K
1/
b100000 !#
1*
#6500
0C
b100000 "#
0/
b1 :"
b10 9"
b1000 5"
b1000010000001111111110 2"
b111110 4"
b1111111110 8"
b1 A"
b1 @"
b10100001000010000001111111110 (
b10100001000010000001111111110 0"
b10100001000010000001111111110 F"
b100 E"
0*
#7000
b0 6
b111100111100 7
b1111111110 L"
b1111111110 x"
b1111111110 w"
b1111111110 t"
b1111111110 s"
b1111 y"
b1111111110 p"
b1111111110 r"
b1 k"
b10000100001000000111111111000 U"
b1111111110 S"
b111110 O"
b0 h"
b1 u"
b100000 "#
b1100 R"
0b"
1I"
0W"
b0 l"
b111100111100 M"
b0 %
b0 9
b0 `"
b111100111100 &
b111100111100 :
b111100111100 _"
1\"
b10100001000010000001111111110 T"
b1000 '
b1000 /"
b1000 P"
b1000 Q"
b0 B#
b0 A#
b0 @#
b0 ?#
b0 >#
b0 =#
b0 <#
b0 ;#
b0 :#
b0 9#
b0 8#
b0 7#
b0 6#
b0 5#
b0 4#
b0 3#
b0 2#
b0 1#
b0 0#
b0 /#
b0 .#
b0 -#
b0 ,#
b0 +#
b0 *#
b0 )#
b0 (#
b0 '#
b0 &#
b0 %#
b0 $#
b0 ##
1{"
1C
1/
b100000 !#
1*
#7500
0C
b100000 "#
0/
b10 :"
b11 9"
b1100 5"
b10000100000110011101101 2"
b101101 4"
b110011101101 8"
b10 A"
b10 @"
b10100010000100000110011101101 (
b10100010000100000110011101101 0"
b10100010000100000110011101101 F"
b1000 E"
0*
#8000
b1111111110 7
b1100 }"
b110011101101 L"
b110011101101 x"
b110011101101 w"
b110011101101 t"
b110011101101 s"
b10011 y"
b110011101101 p"
b110011101101 r"
b10 k"
b10001000010000011001110110100 U"
b110011101101 S"
b101101 O"
b1 h"
b10 u"
b100000 "#
b10000 R"
b0 m"
b111100111100 N"
0Z"
1J"
0c"
b1 l"
b1111111110 M"
b1000 X"
b1111111110 &
b1111111110 :
b1111111110 _"
b10100010000100000110011101101 T"
b1100 '
b1100 /"
b1100 P"
b1100 Q"
b0 B#
b0 A#
b0 @#
b0 ?#
b0 >#
b0 =#
b0 <#
b0 ;#
b0 :#
b0 9#
b0 8#
b0 7#
b0 6#
b0 5#
b0 4#
b0 3#
b0 2#
b0 1#
b0 0#
b0 /#
b0 .#
b0 -#
b0 ,#
b0 +#
b0 *#
b0 )#
b0 (#
b0 '#
b0 &#
b0 %#
b0 $#
b0 ##
1z"
b1100 $
b1100 8
b1100 G"
1C
b1100 2
b1100 %"
b111100111100 '"
b0 B
b111100111100 @
b0 N
b111100111100 L
1/
b100000 !#
1*
#8500
0C
b100000 "#
0/
b11 :"
b100 9"
b10000 5"
b11000110000000010001010 2"
b1010 4"
b10001010 8"
b11 A"
b11 @"
b10100011000110000000010001010 (
b10100011000110000000010001010 0"
b10100011000110000000010001010 F"
b1100 E"
0*
#9000
b110011101101 7
b10001010 L"
b10001010 x"
b10001010 w"
b10001010 t"
b10001010 s"
b10 y"
b10001010 p"
b10001010 r"
b11 k"
b10001100011000000001000101000 U"
b10001010 S"
b1010 O"
b0 h"
b11 u"
b10100 R"
b1000 Y"
b1 m"
b1111111110 N"
b10 l"
b110011101101 M"
b1100 X"
b110011101101 &
b110011101101 :
b110011101101 _"
b10100011000110000000010001010 T"
b10000 '
b10000 /"
b10000 P"
b10000 Q"
b0 B#
b0 A#
b0 @#
b0 ?#
b0 >#
b0 =#
b0 <#
b0 ;#
b0 :#
b0 9#
b0 8#
b0 7#
b0 6#
b0 5#
b0 4#
b0 3#
b0 2#
b0 1#
b0 0#
b0 /#
b0 .#
b0 -#
b0 ,#
b0 +#
b0 *#
b0 )#
b0 (#
b0 '#
b0 &#
b0 %#
b0 $#
b1100 ##
1"
b100000 "#
b0 }"
b0 $
b0 8
b0 G"
1C
b0 2
b0 %"
b1111111110 '"
b1111111110 @
b1100 K
b1111111110 L
1/
b100000 !#
1*
#9500
0C
b100000 "#
0/
b100000 7"
b1 ="
b100 6"
b11100 C"
b1 ?"
b101 9"
b10100 5"
b111100111100 2"
b111100 4"
b111100111100 8"
b0 A"
b0 @"
b10100100001000000011010000011 (
b10100100001000000011010000011 0"
b10100100001000000011010000011 F"
b10000 E"
0*
#10000
b10001010 7
b11010000011 L"
b11010000011 x"
b11010000011 w"
b11010000011 t"
b11010000011 s"
b11010 y"
b11010000011 p"
b11010000011 r"
b100 k"
b10010000100000001101000001100 U"
b11010000011 S"
b11 O"
b100 u"
b11000 R"
b1100 Y"
b10 m"
b110011101101 N"
b11 l"
b10001010 M"
b10000 X"
b10001010 &
b10001010 :
b10001010 _"
b10100100001000000011010000011 T"
b10100 '
b10100 /"
b10100 P"
b10100 Q"
b0 B#
b0 A#
b0 @#
b0 ?#
b0 >#
b0 =#
b0 <#
b0 ;#
b0 :#
b0 9#
b0 8#
b0 7#
b0 6#
b0 5#
b0 4#
b0 3#
b0 2#
b0 1#
b0 0#
b0 /#
b0 .#
b0 -#
b0 ,#
b0 +#
b0 *#
b0 )#
b0 (#
b0 '#
b0 &#
b0 %#
b0 $#
b1100 ##
b100000 "#
b11100 }"
b11100 $
b11100 8
b11100 G"
1C
b11100 2
b11100 %"
b110011101101 '"
b110011101101 @
b0 K
b110011101101 L
1/
b100000 !#
1*
#10500
0C
b100000 "#
0/
b100000 7"
b10 ="
b1000 6"
b1111 C"
b0 ?"
b110 9"
b11000 5"
b1000010000001111111110 2"
b111110 4"
b1111111110 8"
b1 A"
b1 @"
b10100101001010000100010011000 (
b10100101001010000100010011000 0"
b10100101001010000100010011000 F"
b10100 E"
0*
#11000
b11010000011 7
b100010011000 L"
b100010011000 x"
b100010011000 w"
b100010011000 t"
b100010011000 s"
b10 y"
b100010011000 p"
b100010011000 r"
b101 k"
b10010100101000010001001100000 U"
b100010011000 S"
b11000 O"
b1 h"
b101 u"
b11100 R"
b10000 Y"
b11 m"
b10001010 N"
b100 l"
b11010000011 M"
b10100 X"
b11010000011 &
b11010000011 :
b11010000011 _"
b10100101001010000100010011000 T"
b11000 '
b11000 /"
b11000 P"
b11000 Q"
b0 B#
b0 A#
b0 @#
b0 ?#
b0 >#
b0 =#
b0 <#
b0 ;#
b0 :#
b0 9#
b0 8#
b0 7#
b0 6#
b0 5#
b0 4#
b0 3#
b0 2#
b0 1#
b0 0#
b0 /#
b0 .#
b0 -#
b0 ,#
b0 +#
b0 *#
b0 )#
b0 (#
b0 '#
b0 &#
b11100 %#
b0 $#
b1100 ##
b100000 "#
b101111 }"
b101111 $
b101111 8
b101111 G"
1C
b101111 2
b101111 %"
b10001010 '"
b10001010 @
b11100 K
b10001010 L
1/
b100000 !#
1*
#11500
0C
b100000 "#
0/
b100000 7"
b11 ="
b1100 6"
b10011 C"
b1 ?"
b111 9"
b11100 5"
b10000100000110011101101 2"
b101101 4"
b110011101101 8"
b10 A"
b10 @"
b10100110001100000011001110001 (
b10100110001100000011001110001 0"
b10100110001100000011001110001 F"
b11000 E"
0*
#12000
b100010011000 7
b11001110001 L"
b11001110001 x"
b11001110001 w"
b11001110001 t"
b11001110001 s"
b11001 y"
b11001110001 p"
b11001110001 r"
b110 k"
b10011000110000001100111000100 U"
b11001110001 S"
b110001 O"
b0 h"
b110 u"
b100000 R"
b10100 Y"
b100 m"
b11010000011 N"
b101 l"
b100010011000 M"
b11000 X"
b100010011000 &
b100010011000 :
b100010011000 _"
b10100110001100000011001110001 T"
b11100 '
b11100 /"
b11100 P"
b11100 Q"
b0 B#
b0 A#
b0 @#
b0 ?#
b0 >#
b0 =#
b0 <#
b0 ;#
b0 :#
b0 9#
b0 8#
b0 7#
b0 6#
b0 5#
b0 4#
b0 3#
b0 2#
b0 1#
b0 0#
b0 /#
b0 .#
b0 -#
b0 ,#
b0 +#
b0 *#
b0 )#
b0 (#
b0 '#
b101111 &#
b11100 %#
b0 $#
b1100 ##
b100000 "#
b110000 }"
b110000 $
b110000 8
b110000 G"
1C
b110000 2
b110000 %"
b11010000011 '"
b11010000011 @
b101111 K
b11010000011 L
1/
b100000 !#
1*
#12500
0C
b100000 "#
0/
b100000 7"
b100 ="
b10000 6"
b10 C"
b0 ?"
b1000 9"
b100000 5"
b11000110000000010001010 2"
b1010 4"
b10001010 8"
b11 A"
b11 @"
b10100111001110000010010110111 (
b10100111001110000010010110111 0"
b10100111001110000010010110111 F"
b11100 E"
0*
#13000
b11001110001 7
b10010110111 L"
b10010110111 x"
b10010110111 w"
b10010110111 t"
b10010110111 s"
b10010 y"
b10010110111 p"
b10010110111 r"
b111 k"
b10011100111000001001011011100 U"
b10010110111 S"
b110111 O"
b111 u"
b100100 R"
b11000 Y"
b101 m"
b100010011000 N"
b110 l"
b11001110001 M"
b11100 X"
b11001110001 &
b11001110001 :
b11001110001 _"
b10100111001110000010010110111 T"
b100000 '
b100000 /"
b100000 P"
b100000 Q"
b0 B#
b0 A#
b0 @#
b0 ?#
b0 >#
b0 =#
b0 <#
b0 ;#
b0 :#
b0 9#
b0 8#
b0 7#
b0 6#
b0 5#
b0 4#
b0 3#
b0 2#
b0 1#
b0 0#
b0 /#
b0 .#
b0 -#
b0 ,#
b0 +#
b0 *#
b0 )#
b0 (#
b110000 '#
b101111 &#
b11100 %#
b0 $#
b1100 ##
b100000 "#
b11111111111111111111111111111110 }"
b11111111111111111111111111111110 $
b11111111111111111111111111111110 8
b11111111111111111111111111111110 G"
1C
b11111111111111111111111111111110 2
b11111111111111111111111111111110 %"
b100010011000 '"
b100010011000 @
b110000 K
b100010011000 L
1/
b100000 !#
1*
#13500
0C
b100000 "#
0/
b100000 7"
b101 ="
b10100 6"
b11010 C"
b1001 9"
b100100 5"
b100001000000011010000011 2"
b11 4"
b11010000011 8"
b100 A"
b100 @"
b10101000010000000001010001101 (
b10101000010000000001010001101 0"
b10101000010000000001010001101 F"
b100000 E"
0*
