demo_pattern/SP.vcd
$date
	Mon Jan 15 13:27:56 2024
$end
$version
	Icarus Verilog
$end
$timescale
	10ps
$end
$scope module TESTBED $end
$var wire 1 ! rst_n $end
$var wire 1 " out_valid $end
$var wire 1 # mem_wen $end
$var wire 32 $ mem_dout [31:0] $end
$var wire 32 % mem_din [31:0] $end
$var wire 12 & mem_addr [11:0] $end
$var wire 32 ' inst_addr [31:0] $end
$var wire 32 ( inst [31:0] $end
$var wire 1 ) in_valid $end
$var wire 1 * clk $end
$var integer 32 + i [31:0] $end
$scope module My_MEM $end
$var wire 1 , CEN $end
$var wire 1 - OEN $end
$var wire 1 . _CEN $end
$var wire 1 / _CLK $end
$var wire 1 0 _OEN $end
$var wire 1 1 _OENi $end
$var wire 32 2 _Q [31:0] $end
$var wire 1 3 _WEN $end
$var wire 1 4 re_flag $end
$var wire 1 5 re_data_flag $end
$var wire 32 6 _D [31:0] $end
$var wire 12 7 _A [11:0] $end
$var wire 1 # WEN $end
$var wire 32 8 Q [31:0] $end
$var wire 32 9 D [31:0] $end
$var wire 1 * CLK $end
$var wire 12 : A [11:0] $end
$var parameter 32 ; BITS $end
$var parameter 32 < addr_width $end
$var parameter 12 = addrx $end
$var parameter 32 > word_depth $end
$var parameter 32 ? wordx $end
$var reg 12 @ Ai [11:0] $end
$var reg 1 A CENi $end
$var reg 32 B Di [31:0] $end
$var reg 1 C LAST_CLK $end
$var reg 12 D LAST_NOT_A [11:0] $end
$var reg 1 E LAST_NOT_CEN $end
$var reg 1 F LAST_NOT_CLK_MINH $end
$var reg 1 G LAST_NOT_CLK_MINL $end
$var reg 1 H LAST_NOT_CLK_PER $end
$var reg 32 I LAST_NOT_D [31:0] $end
$var reg 1 J LAST_NOT_WEN $end
$var reg 32 K LAST_Qi [31:0] $end
$var reg 12 L LATCHED_A [11:0] $end
$var reg 1 M LATCHED_CEN $end
$var reg 32 N LATCHED_D [31:0] $end
$var reg 1 O LATCHED_WEN $end
$var reg 12 P NOT_A [11:0] $end
$var reg 1 Q NOT_A0 $end
$var reg 1 R NOT_A1 $end
$var reg 1 S NOT_A10 $end
$var reg 1 T NOT_A11 $end
$var reg 1 U NOT_A2 $end
$var reg 1 V NOT_A3 $end
$var reg 1 W NOT_A4 $end
$var reg 1 X NOT_A5 $end
$var reg 1 Y NOT_A6 $end
$var reg 1 Z NOT_A7 $end
$var reg 1 [ NOT_A8 $end
$var reg 1 \ NOT_A9 $end
$var reg 1 ] NOT_CEN $end
$var reg 1 ^ NOT_CLK_MINH $end
$var reg 1 _ NOT_CLK_MINL $end
$var reg 1 ` NOT_CLK_PER $end
$var reg 32 a NOT_D [31:0] $end
$var reg 1 b NOT_D0 $end
$var reg 1 c NOT_D1 $end
$var reg 1 d NOT_D10 $end
$var reg 1 e NOT_D11 $end
$var reg 1 f NOT_D12 $end
$var reg 1 g NOT_D13 $end
$var reg 1 h NOT_D14 $end
$var reg 1 i NOT_D15 $end
$var reg 1 j NOT_D16 $end
$var reg 1 k NOT_D17 $end
$var reg 1 l NOT_D18 $end
$var reg 1 m NOT_D19 $end
$var reg 1 n NOT_D2 $end
$var reg 1 o NOT_D20 $end
$var reg 1 p NOT_D21 $end
$var reg 1 q NOT_D22 $end
$var reg 1 r NOT_D23 $end
$var reg 1 s NOT_D24 $end
$var reg 1 t NOT_D25 $end
$var reg 1 u NOT_D26 $end
$var reg 1 v NOT_D27 $end
$var reg 1 w NOT_D28 $end
$var reg 1 x NOT_D29 $end
$var reg 1 y NOT_D3 $end
$var reg 1 z NOT_D30 $end
$var reg 1 { NOT_D31 $end
$var reg 1 | NOT_D4 $end
$var reg 1 } NOT_D5 $end
$var reg 1 ~ NOT_D6 $end
$var reg 1 !" NOT_D7 $end
$var reg 1 "" NOT_D8 $end
$var reg 1 #" NOT_D9 $end
$var reg 1 $" NOT_WEN $end
$var reg 32 %" Qi [31:0] $end
$var reg 1 &" WENi $end
$scope function valid_address $end
$var reg 12 '" a [11:0] $end
$upscope $end
$scope task latch_inputs $end
$upscope $end
$scope task mem_cycle $end
$upscope $end
$scope task process_violations $end
$upscope $end
$scope task read_mem $end
$var reg 1 (" r_wb $end
$var reg 1 )" xflag $end
$upscope $end
$scope task update_last_notifiers $end
$upscope $end
$scope task update_logic $end
$upscope $end
$scope task update_notifier_buses $end
$upscope $end
$scope task write_mem $end
$var reg 12 *" a [11:0] $end
$var reg 32 +" d [31:0] $end
$upscope $end
$scope task write_mem_x $end
$var reg 12 ," a [11:0] $end
$upscope $end
$scope task x_inputs $end
$var integer 32 -" n [31:0] $end
$upscope $end
$scope task x_mem $end
$var integer 32 ." n [31:0] $end
$upscope $end
$upscope $end
$scope module My_PATTERN $end
$var wire 1 " out_valid $end
$var wire 32 /" inst_addr [31:0] $end
$var reg 1 * clk $end
$var reg 1 ) in_valid $end
$var reg 32 0" inst [31:0] $end
$var reg 1 ! rst_n $end
$var real 1 1" CYCLE $end
$var integer 32 2" address [31:0] $end
$var integer 32 3" func [31:0] $end
$var integer 32 4" golden_inst_addr [31:0] $end
$var integer 32 5" i [31:0] $end
$var integer 32 6" immediate [31:0] $end
$var integer 32 7" opcode [31:0] $end
$var integer 32 8" out_counter [31:0] $end
$var integer 32 9" out_max_latency [31:0] $end
$var integer 32 :" pat [31:0] $end
$var integer 32 ;" pat_num [31:0] $end
$var integer 32 <" rd [31:0] $end
$var integer 32 =" rs [31:0] $end
$var integer 32 >" rt [31:0] $end
$var integer 32 ?" seed [31:0] $end
$var integer 32 @" shamt [31:0] $end
$var integer 32 A" t [31:0] $end
$scope task check_ans_task $end
$upscope $end
$scope task check_memory_task $end
$upscope $end
$scope task display_fail_task $end
$upscope $end
$scope task display_pass_task $end
$upscope $end
$scope task input_task $end
$upscope $end
$scope task out_valid_wait_task $end
$upscope $end
$scope task reset_check_task $end
$upscope $end
$upscope $end
$scope module My_SP $end
$var wire 1 * clk $end
$var wire 1 ) in_valid $end
$var wire 32 B" inst [31:0] $end
$var wire 32 C" mem_dout [31:0] $end
$var wire 1 ! rst_n $end
$var parameter 32 D" EXE $end
$var parameter 32 E" FandD $end
$var parameter 32 F" IDLE $end
$var parameter 32 G" SLW $end
$var reg 32 H" SE [31:0] $end
$var reg 32 I" ZE [31:0] $end
$var reg 32 J" aout [31:0] $end
$var reg 32 K" inst_addr [31:0] $end
$var reg 12 L" mem_addr [11:0] $end
$var reg 32 M" mem_din [31:0] $end
$var reg 1 # mem_wen $end
$var reg 2 N" next [1:0] $end
$var reg 6 O" op [5:0] $end
$var reg 1 " out_valid $end
$var reg 5 P" rd [4:0] $end
$var reg 32 Q" rd_cur [31:0] $end
$var reg 32 R" rd_temp [31:0] $end
$var reg 5 S" rs [4:0] $end
$var reg 32 T" rs_cur [31:0] $end
$var reg 5 U" rt [4:0] $end
$var reg 32 V" rt_cur [31:0] $end
$var reg 32 W" rt_temp [31:0] $end
$var reg 1 X" stage_1 $end
$var reg 1 Y" stage_2 $end
$var reg 1 Z" stage_3 $end
$var reg 1 [" stage_4 $end
$var reg 2 \" state [1:0] $end
$scope begin $ivl_for_loop0 $end
$var integer 32 ]" i [31:0] $end
$upscope $end
$upscope $end
$upscope $end
$scope module TESTBED $end
$scope module My_SP $end
$var reg 32 ^" \r[0] [31:0] $end
$upscope $end
$upscope $end
$scope module TESTBED $end
$scope module My_SP $end
$var reg 32 _" \r[1] [31:0] $end
$upscope $end
$upscope $end
$scope module TESTBED $end
$scope module My_SP $end
$var reg 32 `" \r[2] [31:0] $end
$upscope $end
$upscope $end
$scope module TESTBED $end
$scope module My_SP $end
$var reg 32 a" \r[3] [31:0] $end
$upscope $end
$upscope $end
$scope module TESTBED $end
$scope module My_SP $end
$var reg 32 b" \r[4] [31:0] $end
$upscope $end
$upscope $end
$scope module TESTBED $end
$scope module My_SP $end
$var reg 32 c" \r[5] [31:0] $end
$upscope $end
$upscope $end
$scope module TESTBED $end
$scope module My_SP $end
$var reg 32 d" \r[6] [31:0] $end
$upscope $end
$upscope $end
$scope module TESTBED $end
$scope module My_SP $end
$var reg 32 e" \r[7] [31:0] $end
$upscope $end
$upscope $end
$scope module TESTBED $end
$scope module My_SP $end
$var reg 32 f" \r[8] [31:0] $end
$upscope $end
$upscope $end
$scope module TESTBED $end
$scope module My_SP $end
$var reg 32 g" \r[9] [31:0] $end
$upscope $end
$upscope $end
$scope module TESTBED $end
$scope module My_SP $end
$var reg 32 h" \r[10] [31:0] $end
$upscope $end
$upscope $end
$scope module TESTBED $end
$scope module My_SP $end
$var reg 32 i" \r[11] [31:0] $end
$upscope $end
$upscope $end
$scope module TESTBED $end
$scope module My_SP $end
$var reg 32 j" \r[12] [31:0] $end
$upscope $end
$upscope $end
$scope module TESTBED $end
$scope module My_SP $end
$var reg 32 k" \r[13] [31:0] $end
$upscope $end
$upscope $end
$scope module TESTBED $end
$scope module My_SP $end
$var reg 32 l" \r[14] [31:0] $end
$upscope $end
$upscope $end
$scope module TESTBED $end
$scope module My_SP $end
$var reg 32 m" \r[15] [31:0] $end
$upscope $end
$upscope $end
$scope module TESTBED $end
$scope module My_SP $end
$var reg 32 n" \r[16] [31:0] $end
$upscope $end
$upscope $end
$scope module TESTBED $end
$scope module My_SP $end
$var reg 32 o" \r[17] [31:0] $end
$upscope $end
$upscope $end
$scope module TESTBED $end
$scope module My_SP $end
$var reg 32 p" \r[18] [31:0] $end
$upscope $end
$upscope $end
$scope module TESTBED $end
$scope module My_SP $end
$var reg 32 q" \r[19] [31:0] $end
$upscope $end
$upscope $end
$scope module TESTBED $end
$scope module My_SP $end
$var reg 32 r" \r[20] [31:0] $end
$upscope $end
$upscope $end
$scope module TESTBED $end
$scope module My_SP $end
$var reg 32 s" \r[21] [31:0] $end
$upscope $end
$upscope $end
$scope module TESTBED $end
$scope module My_SP $end
$var reg 32 t" \r[22] [31:0] $end
$upscope $end
$upscope $end
$scope module TESTBED $end
$scope module My_SP $end
$var reg 32 u" \r[23] [31:0] $end
$upscope $end
$upscope $end
$scope module TESTBED $end
$scope module My_SP $end
$var reg 32 v" \r[24] [31:0] $end
$upscope $end
$upscope $end
$scope module TESTBED $end
$scope module My_SP $end
$var reg 32 w" \r[25] [31:0] $end
$upscope $end
$upscope $end
$scope module TESTBED $end
$scope module My_SP $end
$var reg 32 x" \r[26] [31:0] $end
$upscope $end
$upscope $end
$scope module TESTBED $end
$scope module My_SP $end
$var reg 32 y" \r[27] [31:0] $end
$upscope $end
$upscope $end
$scope module TESTBED $end
$scope module My_SP $end
$var reg 32 z" \r[28] [31:0] $end
$upscope $end
$upscope $end
$scope module TESTBED $end
$scope module My_SP $end
$var reg 32 {" \r[29] [31:0] $end
$upscope $end
$upscope $end
$scope module TESTBED $end
$scope module My_SP $end
$var reg 32 |" \r[30] [31:0] $end
$upscope $end
$upscope $end
$scope module TESTBED $end
$scope module My_SP $end
$var reg 32 }" \r[31] [31:0] $end
$upscope $end
$upscope $end
$enddefinitions $end
$comment Show the parameter values. $end
$dumpall
b11 G"
b0 F"
b1 E"
b10 D"
bx ?
b1000000000000 >
bx =
b1100 <
b100000 ;
$end
#0
$dumpvars
bx }"
bx |"
bx {"
bx z"
bx y"
bx x"
bx w"
bx v"
bx u"
bx t"
bx s"
bx r"
bx q"
bx p"
bx o"
bx n"
bx m"
bx l"
bx k"
bx j"
bx i"
bx h"
bx g"
bx f"
bx e"
bx d"
bx c"
bx b"
bx a"
bx `"
bx _"
bx ^"
bx ]"
bx \"
x["
xZ"
xY"
xX"
bx W"
bx V"
bx U"
bx T"
bx S"
bx R"
bx Q"
bx P"
bx O"
b0 N"
bx M"
bx L"
bx K"
bx J"
bx I"
bx H"
bx C"
bx B"
bx A"
bx @"
b1000000 ?"
bx >"
bx ="
bx <"
b111110100 ;"
bx :"
b1010 9"
bx 8"
bx 7"
bx 6"
b100000 5"
b0 4"
bx 3"
bx 2"
r10 1"
bx 0"
bx /"
bx ."
bx -"
bx ,"
bx +"
bx *"
x)"
x("
bx '"
x&"
bx %"
x$"
x#"
x""
x!"
x~
x}
x|
x{
xz
xy
xx
xw
xv
xu
xt
xs
xr
xq
xp
xo
xn
xm
xl
xk
xj
xi
xh
xg
xf
xe
xd
xc
xb
bx a
x`
x_
x^
x]
x\
x[
xZ
xY
xX
xW
xV
xU
xT
xS
xR
xQ
bx P
xO
bx N
xM
bx L
bx K
xJ
bx I
xH
xG
xF
xE
bx D
0C
bx B
xA
bx @
bx :
bx 9
bx 8
bx 7
bx 6
x5
14
x3
bx 2
01
00
0/
0.
0-
0,
b100000 +
0*
0)
bx (
bx '
bx &
bx %
bx $
x#
x"
1!
$end
#500
0*
#1000
b0 6
b0 7
05
13
b0 '
b0 /"
b0 K"
0"
0["
0Z"
0Y"
0X"
b0 %
b0 9
b0 M"
b0 &
b0 :
b0 L"
1#
b0 \"
b0 }"
b0 |"
b0 {"
b0 z"
b0 y"
b0 x"
b0 w"
b0 v"
b0 u"
b0 t"
b0 s"
b0 r"
b0 q"
b0 p"
b0 o"
b0 n"
b0 m"
b0 l"
b0 k"
b0 j"
b0 i"
b0 h"
b0 g"
b0 f"
b0 e"
b0 d"
b0 c"
b0 b"
b0 a"
b0 `"
b0 _"
b0 ^"
b100000 ]"
0!
#2000
b100000 5"
1!
#3000
b11111111111111111111111111111101 $
b11111111111111111111111111111101 8
b11111111111111111111111111111101 C"
1C
b11111111111111111111111111111101 2
b11111111111111111111111111111101 %"
b0 '"
0)"
1("
b0 B
b0 @
1&"
0A
0M
1O
b0 N
b0 L
1/
b11 A"
b10000110111001101000001 ?"
1*
#3500
0C
0/
0*
#4000
1C
b11111111111111111111111111111101 K
1/
1*
#4500
0C
0/
0*
#5000
1C
1/
1*
#5500
0C
b1 N"
0/
1)
b10100000000000000111100111100 (
b10100000000000000111100111100 0"
b10100000000000000111100111100 B"
b0 :"
0*
#6000
b111100111100 J"
1X"
b1 \"
1C
1/
b0 Q"
b0 V"
b0 T"
b111100111100 H"
b111100111100 I"
b1 P"
b0 U"
b0 S"
b101 O"
1*
#6500
0C
b10 N"
0/
b1 8"
0)
bx (
bx 0"
bx B"
0*
#7000
1Y"
0X"
b10 \"
b111100111100 7
1C
1/
b11111111111111111111111111111101 W"
b111100111100 &
b111100111100 :
b111100111100 L"
1*
#7500
0C
0/
b10 8"
0*
#8000
1Z"
0Y"
b1100 $
b1100 8
b1100 C"
1C
b1100 2
b1100 %"
b111100111100 '"
b111100111100 @
b111100111100 L
1/
1*
#8500
0C
0/
b11 8"
0*
#9000
b11 N"
1["
0Z"
1C
b1100 K
1/
b1100 W"
1*
#9500
0C
0/
b100 8"
0*
#10000
b100 '
b100 /"
b100 K"
b0 N"
1"
0["
b11 \"
1C
1/
b1100 ^"
1*
#10500
0C
0/
b100000 5"
b100 4"
b111100111100 2"
b111100111100 6"
b111100 3"
b11100 @"
b1 <"
b0 >"
b0 ="
b101 7"
0*
#11000
0"
b0 \"
1C
1/
1*
#11500
0C
b1 N"
0/
1)
b10100001000010000001111111110 (
b10100001000010000001111111110 0"
b10100001000010000001111111110 B"
b1 :"
0*
#12000
b1111111110 J"
1X"
b1 \"
1C
1/
b1100 Q"
b1111111110 H"
b1111111110 I"
b0 P"
b1 U"
b1 S"
1*
#12500
0C
b10 N"
0/
b1 8"
0)
bx (
bx 0"
bx B"
0*
#13000
1Y"
0X"
b10 \"
b1111111110 7
1C
1/
b1111111110 &
b1111111110 :
b1111111110 L"
1*
#13500
0C
0/
b10 8"
0*
#14000
1Z"
0Y"
b0 $
b0 8
b0 C"
1C
b0 2
b0 %"
b1111111110 '"
b1111111110 @
b1111111110 L
1/
1*
#14500
0C
0/
b11 8"
0*
#15000
b11 N"
1["
0Z"
1C
b0 K
1/
b0 W"
1*
#15500
0C
0/
b100 8"
0*
#16000
b1000 '
b1000 /"
b1000 K"
b0 N"
1"
0["
b11 \"
1C
1/
b0 _"
1*
#16500
0C
0/
b100000 5"
b1000 4"
b1000010000001111111110 2"
b1111111110 6"
b111110 3"
b1111 @"
b0 <"
b1 >"
b1 ="
0*
#17000
0"
b0 \"
1C
1/
1*
#17500
0C
b1 N"
0/
1)
b10100010000100000110011101101 (
b10100010000100000110011101101 0"
b10100010000100000110011101101 B"
b10 :"
0*
#18000
b110011101101 J"
1X"
b1 \"
1C
1/
b0 Q"
b110011101101 H"
b110011101101 I"
b1 P"
b10 U"
b10 S"
1*
#18500
0C
b10 N"
0/
b1 8"
0)
bx (
bx 0"
bx B"
0*
#19000
1Y"
0X"
b10 \"
b110011101101 7
1C
1/
b110011101101 &
b110011101101 :
b110011101101 L"
1*
#19500
0C
0/
b10 8"
0*
#20000
1Z"
0Y"
b11100 $
b11100 8
b11100 C"
1C
b11100 2
b11100 %"
b110011101101 '"
b110011101101 @
b110011101101 L
1/
1*
#20500
0C
0/
b11 8"
0*
#21000
b11 N"
1["
0Z"
1C
b11100 K
1/
b11100 W"
1*
#21500
0C
0/
b100 8"
0*
#22000
b1100 '
b1100 /"
b1100 K"
b0 N"
1"
0["
b11 \"
1C
1/
b11100 `"
1*
#22500
0C
0/
b100000 5"
b1100 4"
b10000100000110011101101 2"
b110011101101 6"
b101101 3"
b10011 @"
b1 <"
b10 >"
b10 ="
0*
#23000
0"
b0 \"
1C
1/
1*
#23500
0C
b1 N"
0/
1)
b10100011000110000000010001010 (
b10100011000110000000010001010 0"
b10100011000110000000010001010 B"
b11 :"
0*
#24000
b10001010 J"
1X"
b1 \"
1C
1/
b1100 Q"
b10001010 H"
b10001010 I"
b0 P"
b11 U"
b11 S"
1*
#24500
0C
b10 N"
0/
b1 8"
0)
bx (
bx 0"
bx B"
0*
#25000
1Y"
0X"
b10 \"
b10001010 7
1C
1/
b10001010 &
b10001010 :
b10001010 L"
1*
#25500
0C
0/
b10 8"
0*
#26000
1Z"
0Y"
b101111 $
b101111 8
b101111 C"
1C
b101111 2
b101111 %"
b10001010 '"
b10001010 @
b10001010 L
1/
1*
#26500
0C
0/
b11 8"
0*
#27000
b11 N"
1["
0Z"
1C
b101111 K
1/
b101111 W"
1*
#27500
0C
0/
b100 8"
0*
#28000
b10000 '
b10000 /"
b10000 K"
b0 N"
1"
0["
b11 \"
1C
1/
b101111 a"
1*
#28500
0C
0/
b100000 5"
b10000 4"
b11000110000000010001010 2"
b10001010 6"
b1010 3"
b10 @"
b0 <"
b11 >"
b11 ="
0*
#29000
0"
b0 \"
1C
1/
1*
#29500
0C
b1 N"
0/
1)
b10100100001000000011010000011 (
b10100100001000000011010000011 0"
b10100100001000000011010000011 B"
b100 :"
0*
#30000
b11010000011 J"
1X"
b1 \"
1C
1/
b11010000011 H"
b11010000011 I"
b100 U"
b100 S"
1*
#30500
0C
b10 N"
0/
b1 8"
0)
bx (
bx 0"
bx B"
0*
#31000
1Y"
0X"
b10 \"
b11010000011 7
1C
1/
b11010000011 &
b11010000011 :
b11010000011 L"
1*
#31500
0C
0/
b10 8"
0*
#32000
1Z"
0Y"
b110000 $
b110000 8
b110000 C"
1C
b110000 2
b110000 %"
b11010000011 '"
b11010000011 @
b11010000011 L
1/
1*
#32500
0C
0/
b11 8"
0*
#33000
b11 N"
1["
0Z"
1C
b110000 K
1/
b110000 W"
1*
#33500
0C
0/
b100 8"
0*
#34000
b10100 '
b10100 /"
b10100 K"
b0 N"
1"
0["
b11 \"
1C
1/
b110000 b"
1*
#34500
0C
0/
b100000 5"
b10100 4"
b100001000000011010000011 2"
b11010000011 6"
b11 3"
b11010 @"
b100 >"
b100 ="
0*
#35000
0"
b0 \"
1C
1/
1*
#35500
0C
b1 N"
0/
1)
b10100101001010000100010011000 (
b10100101001010000100010011000 0"
b10100101001010000100010011000 B"
b101 :"
0*
#36000
b100010011000 J"
1X"
b1 \"
1C
1/
b0 Q"
b100010011000 H"
b100010011000 I"
b1 P"
b101 U"
b101 S"
1*
#36500
0C
b10 N"
0/
b1 8"
0)
bx (
bx 0"
bx B"
0*
#37000
1Y"
0X"
b10 \"
b100010011000 7
1C
1/
b100010011000 &
b100010011000 :
b100010011000 L"
1*
#37500
0C
0/
b10 8"
0*
#38000
1Z"
0Y"
b11111111111111111111111111111110 $
b11111111111111111111111111111110 8
b11111111111111111111111111111110 C"
1C
b11111111111111111111111111111110 2
b11111111111111111111111111111110 %"
b100010011000 '"
b100010011000 @
b100010011000 L
1/
1*
#38500
0C
0/
b11 8"
0*
#39000
b11 N"
1["
0Z"
1C
b11111111111111111111111111111110 K
1/
b11111111111111111111111111111110 W"
1*
#39500
0C
0/
b100 8"
0*
#40000
b11000 '
b11000 /"
b11000 K"
b0 N"
1"
0["
b11 \"
1C
1/
b11111111111111111111111111111110 c"
1*
#40500
0C
0/
b100000 5"
b11000 4"
b101001010000100010011000 2"
b100010011000 6"
b11000 3"
b10 @"
b1 <"
b101 >"
b101 ="
0*
#41000
0"
b0 \"
1C
1/
1*
#41500
0C
b1 N"
0/
1)
b10100110001100000011001110001 (
b10100110001100000011001110001 0"
b10100110001100000011001110001 B"
b110 :"
0*
#42000
b11001110001 J"
1X"
b1 \"
1C
1/
b1100 Q"
b11001110001 H"
b11001110001 I"
b0 P"
b110 U"
b110 S"
1*
#42500
0C
b10 N"
0/
b1 8"
0)
bx (
bx 0"
bx B"
0*
#43000
1Y"
0X"
b10 \"
b11001110001 7
1C
1/
b11001110001 &
b11001110001 :
b11001110001 L"
1*
#43500
0C
0/
b10 8"
0*
#44000
1Z"
0Y"
b11111111111111111111111111110111 $
b11111111111111111111111111110111 8
b11111111111111111111111111110111 C"
1C
b11111111111111111111111111110111 2
b11111111111111111111111111110111 %"
b11001110001 '"
b11001110001 @
b11001110001 L
1/
1*
#44500
0C
0/
b11 8"
0*
#45000
b11 N"
1["
0Z"
1C
b11111111111111111111111111110111 K
1/
b11111111111111111111111111110111 W"
1*
#45500
0C
0/
b100 8"
0*
#46000
b11100 '
b11100 /"
b11100 K"
b0 N"
1"
0["
b11 \"
1C
1/
b11111111111111111111111111110111 d"
1*
#46500
0C
0/
b100000 5"
b11100 4"
b110001100000011001110001 2"
b11001110001 6"
b110001 3"
b11001 @"
b0 <"
b110 >"
b110 ="
0*
#47000
0"
b0 \"
1C
1/
1*
#47500
0C
b1 N"
0/
1)
b10100111001110000010010110111 (
b10100111001110000010010110111 0"
b10100111001110000010010110111 B"
b111 :"
0*
#48000
b10010110111 J"
1X"
b1 \"
1C
1/
b10010110111 H"
b10010110111 I"
b111 U"
b111 S"
1*
#48500
0C
b10 N"
0/
b1 8"
0)
bx (
bx 0"
bx B"
0*
#49000
1Y"
0X"
b10 \"
b10010110111 7
1C
1/
b10010110111 &
b10010110111 :
b10010110111 L"
1*
#49500
0C
0/
b10 8"
0*
#50000
1Z"
0Y"
b110000 $
b110000 8
b110000 C"
1C
b110000 2
b110000 %"
b10010110111 '"
b10010110111 @
b10010110111 L
1/
1*
#50500
0C
0/
b11 8"
0*
#51000
b11 N"
1["
0Z"
1C
b110000 K
1/
b110000 W"
1*
#51500
0C
0/
b100 8"
0*
#52000
b100000 '
b100000 /"
b100000 K"
b0 N"
1"
0["
b11 \"
1C
1/
b110000 e"
1*
#52500
0C
0/
b100000 5"
b100000 4"
b111001110000010010110111 2"
b10010110111 6"
b110111 3"
b10010 @"
b111 >"
b111 ="
0*
#53000
0"
b0 \"
1C
1/
1*
#53500
0C
b1 N"
0/
1)
b10101000010000000001010001101 (
b10101000010000000001010001101 0"
b10101000010000000001010001101 B"
b1000 :"
0*
#54000
b1010001101 J"
1X"
b1 \"
1C
1/
b1010001101 H"
b1010001101 I"
b1000 U"
b1000 S"
1*
#54500
0C
b10 N"
0/
b1 8"
0)
bx (
bx 0"
bx B"
0*
#55000
1Y"
0X"
b10 \"
b1010001101 7
1C
1/
b1010001101 &
b1010001101 :
b1010001101 L"
1*
#55500
0C
0/
b10 8"
0*
#56000
1Z"
0Y"
b11111111111111111111111111111111 $
b11111111111111111111111111111111 8
b11111111111111111111111111111111 C"
1C
b11111111111111111111111111111111 2
b11111111111111111111111111111111 %"
b1010001101 '"
b1010001101 @
b1010001101 L
1/
1*
#56500
0C
0/
b11 8"
0*
#57000
b11 N"
1["
0Z"
1C
b11111111111111111111111111111111 K
1/
b11111111111111111111111111111111 W"
1*
#57500
0C
0/
b100 8"
0*
#58000
b100100 '
b100100 /"
b100100 K"
b0 N"
1"
0["
b11 \"
1C
1/
b11111111111111111111111111111111 f"
1*
#58500
0C
0/
b100000 5"
b100100 4"
b1000010000000001010001101 2"
b1010001101 6"
b1101 3"
b1010 @"
b1000 >"
b1000 ="
0*
#59000
0"
b0 \"
1C
1/
1*
#59500
0C
b1 N"
0/
1)
b10101001010010000110101010101 (
b10101001010010000110101010101 0"
b10101001010010000110101010101 B"
b1001 :"
0*
#60000
b110101010101 J"
1X"
b1 \"
1C
1/
b0 Q"
b110101010101 H"
b110101010101 I"
b1 P"
b1001 U"
b1001 S"
1*
#60500
0C
b10 N"
0/
b1 8"
0)
bx (
bx 0"
bx B"
0*
#61000
1Y"
0X"
b10 \"
b110101010101 7
1C
1/
b110101010101 &
b110101010101 :
b110101010101 L"
1*
#61500
0C
0/
b10 8"
0*
#62000
1Z"
0Y"
b100110 $
b100110 8
b100110 C"
1C
b100110 2
b100110 %"
b110101010101 '"
b110101010101 @
b110101010101 L
1/
1*
#62500
0C
0/
b11 8"
0*
#63000
b11 N"
1["
0Z"
1C
b100110 K
1/
b100110 W"
1*
#63500
0C
0/
b100 8"
0*
#64000
b101000 '
b101000 /"
b101000 K"
b0 N"
1"
0["
b11 \"
1C
1/
b100110 g"
1*
#64500
0C
0/
b100000 5"
b101000 4"
b1001010010000110101010101 2"
b110101010101 6"
b10101 3"
b10101 @"
b1 <"
b1001 >"
b1001 ="
0*
#65000
0"
b0 \"
1C
1/
1*
#65500
0C
b1 N"
0/
1)
b10101010010100000111000010100 (
b10101010010100000111000010100 0"
b10101010010100000111000010100 B"
b1010 :"
0*
#66000
b111000010100 J"
1X"
b1 \"
1C
1/
b111000010100 H"
b111000010100 I"
b1010 U"
b1010 S"
1*
#66500
0C
b10 N"
0/
b1 8"
0)
bx (
bx 0"
bx B"
0*
#67000
1Y"
0X"
b10 \"
b111000010100 7
1C
1/
b111000010100 &
b111000010100 :
b111000010100 L"
1*
#67500
0C
0/
b10 8"
0*
#68000
1Z"
0Y"
b11111111111111111111111111110011 $
b11111111111111111111111111110011 8
b11111111111111111111111111110011 C"
1C
b11111111111111111111111111110011 2
b11111111111111111111111111110011 %"
b111000010100 '"
b111000010100 @
b111000010100 L
1/
1*
#68500
0C
0/
b11 8"
0*
#69000
b11 N"
1["
0Z"
1C
b11111111111111111111111111110011 K
1/
b11111111111111111111111111110011 W"
1*
#69500
0C
0/
b100 8"
0*
#70000
b101100 '
b101100 /"
b101100 K"
b0 N"
1"
0["
b11 \"
1C
1/
b11111111111111111111111111110011 h"
1*
#70500
0C
0/
b100000 5"
b101100 4"
b1010010100000111000010100 2"
b111000010100 6"
b10100 3"
b11000 @"
b1010 >"
b1010 ="
0*
#71000
0"
b0 \"
1C
1/
1*
#71500
0C
b1 N"
0/
1)
b10101011010110000011001011000 (
b10101011010110000011001011000 0"
b10101011010110000011001011000 B"
b1011 :"
0*
#72000
b11001011000 J"
1X"
b1 \"
1C
1/
b1100 Q"
b11001011000 H"
b11001011000 I"
b0 P"
b1011 U"
b1011 S"
1*
#72500
0C
b10 N"
0/
b1 8"
0)
bx (
bx 0"
bx B"
0*
#73000
1Y"
0X"
b10 \"
b11001011000 7
1C
1/
b11001011000 &
b11001011000 :
b11001011000 L"
1*
#73500
0C
0/
b10 8"
0*
#74000
1Z"
0Y"
b101010 $
b101010 8
b101010 C"
1C
b101010 2
b101010 %"
b11001011000 '"
b11001011000 @
b11001011000 L
1/
1*
#74500
0C
0/
b11 8"
0*
#75000
b11 N"
1["
0Z"
1C
b101010 K
1/
b101010 W"
1*
#75500
0C
0/
b100 8"
0*
#76000
b110000 '
b110000 /"
b110000 K"
b0 N"
1"
0["
b11 \"
1C
1/
b101010 i"
1*
#76500
0C
0/
b100000 5"
b110000 4"
b1011010110000011001011000 2"
b11001011000 6"
b11000 3"
b11001 @"
b0 <"
b1011 >"
b1011 ="
0*
#77000
0"
b0 \"
1C
1/
1*
#77500
0C
b1 N"
0/
1)
b10101100011000000000011001001 (
b10101100011000000000011001001 0"
b10101100011000000000011001001 B"
b1100 :"
0*
#78000
b11001001 J"
1X"
b1 \"
1C
1/
b11001001 H"
b11001001 I"
b1100 U"
b1100 S"
1*
#78500
0C
b10 N"
0/
b1 8"
0)
bx (
bx 0"
bx B"
0*
#79000
1Y"
0X"
b10 \"
b11001001 7
1C
1/
b11001001 &
b11001001 :
b11001001 L"
1*
#79500
0C
0/
b10 8"
0*
#80000
1Z"
0Y"
b110111 $
b110111 8
b110111 C"
1C
b110111 2
b110111 %"
b11001001 '"
b11001001 @
b11001001 L
1/
1*
#80500
0C
0/
b11 8"
0*
#81000
b11 N"
1["
0Z"
1C
b110111 K
1/
b110111 W"
1*
#81500
0C
0/
b100 8"
0*
#82000
b110100 '
b110100 /"
b110100 K"
b0 N"
1"
0["
b11 \"
1C
1/
b110111 j"
1*
#82500
0C
0/
b100000 5"
b110100 4"
b1100011000000000011001001 2"
b11001001 6"
b1001 3"
b11 @"
b1100 >"
b1100 ="
0*
#83000
0"
b0 \"
1C
1/
1*
#83500
0C
b1 N"
0/
1)
b10101101011010000001010101101 (
b10101101011010000001010101101 0"
b10101101011010000001010101101 B"
b1101 :"
0*
#84000
b1010101101 J"
1X"
b1 \"
1C
1/
b1010101101 H"
b1010101101 I"
b1101 U"
b1101 S"
1*
#84500
0C
b10 N"
0/
b1 8"
0)
bx (
bx 0"
bx B"
0*
